{
    "modules": [
        {
            "config": {
                "position": [
                    199,
                    121
                ]
            },
            "name": "New Model Object",
            "value": {
                "actionGroup": {
                    "_default0_list": false,
                    "_default1_show": false,
                    "_default2_new_create": false,
                    "_default3_edit_update": false,
                    "_default4_delete": false,
                    "customActions": [
                        "request"
                    ]
                },
                "name": "Request",
                "objectsettings": {
                    "addDeletedField": true,
                    "addHiddenField": true,
                    "addStarttimeEndtimeFields": true,
                    "aggregateRoot": true,
                    "categorizable": false,
                    "description": "",
                    "mapToTable": "",
                    "parentClass": "",
                    "sorting": false,
                    "type": "Entity",
                    "uid": "1063680005469"
                },
                "propertyGroup": {
                    "properties": []
                },
                "relationGroup": {
                    "relations": []
                }
            }
        }
    ],
    "properties": {
        "backendModules": [],
        "description": "",
        "emConf": {
            "category": "plugin",
            "custom_category": "",
            "dependsOn": "typo3 => 8.6.0-0.0.0\n",
            "disableLocalization": false,
            "disableVersioning": false,
            "skipGenerateDocumentationTemplate": false,
            "sourceLanguage": "en",
            "state": "stable",
            "targetVersion": "8.6.0-8.6.99",
            "version": "8.7.0"
        },
        "extensionKey": "hive_ext_api",
        "name": "hive_ext_api",
        "originalExtensionKey": "hive_ext_api",
        "originalVendorName": "HIVE",
        "persons": [],
        "plugins": [
            {
                "actions": {
                    "controllerActionCombinations": "Request => request",
                    "noncacheableActions": "Request => request",
                    "switchableActions": ""
                },
                "key": "request",
                "name": "hive_ext_api :: Request"
            }
        ],
        "vendorName": "HIVE"
    },
    "wires": [],
    "log": {
        "last_modified": "2017-08-02 10:29",
        "extension_builder_version": "8.6.0",
        "be_user": " (1)"
    }
}